<?xml version="1.0" encoding="UTF-8" standalone="no"?>
<!-- Created with Inkscape (http://www.inkscape.org/) -->

<svg
   xmlns:dc="http://purl.org/dc/elements/1.1/"
   xmlns:cc="http://creativecommons.org/ns#"
   xmlns:rdf="http://www.w3.org/1999/02/22-rdf-syntax-ns#"
   xmlns:svg="http://www.w3.org/2000/svg"
   xmlns="http://www.w3.org/2000/svg"
   xmlns:sodipodi="http://sodipodi.sourceforge.net/DTD/sodipodi-0.dtd"
   xmlns:inkscape="http://www.inkscape.org/namespaces/inkscape"
   width="210mm"
   height="297mm"
   viewBox="0 0 210 297"
   version="1.1"
   id="svg539"
   inkscape:version="0.92.2 5c3e80d, 2017-08-06"
   sodipodi:docname="peter_smile.svg"
   inkscape:export-filename="/home/lasse/prog/gitmate/artwork/people/peter_smile.png"
   inkscape:export-xdpi="1124.9301"
   inkscape:export-ydpi="1124.9301">
  <defs
     id="defs533" />
  <sodipodi:namedview
     id="base"
     pagecolor="#ffffff"
     bordercolor="#666666"
     borderopacity="1.0"
     inkscape:pageopacity="0.0"
     inkscape:pageshadow="2"
     inkscape:zoom="1.5039063"
     inkscape:cx="252.26937"
     inkscape:cy="572.29915"
     inkscape:document-units="mm"
     inkscape:current-layer="layer1"
     showgrid="false"
     inkscape:window-width="2560"
     inkscape:window-height="1357"
     inkscape:window-x="0"
     inkscape:window-y="44"
     inkscape:window-maximized="1" />
  <metadata
     id="metadata536">
    <rdf:RDF>
      <cc:Work
         rdf:about="">
        <dc:format>image/svg+xml</dc:format>
        <dc:type
           rdf:resource="http://purl.org/dc/dcmitype/StillImage" />
        <dc:title></dc:title>
      </cc:Work>
    </rdf:RDF>
  </metadata>
  <g
     inkscape:label="Layer 1"
     inkscape:groupmode="layer"
     id="layer1">
    <g
       id="g475"
       transform="matrix(0.03527778,0,0,-0.03527778,-140.28197,89.731301)">
      <path
         inkscape:connector-curvature="0"
         id="path352"
         style="fill:#2e2d2d;fill-opacity:1;fill-rule:evenodd;stroke:none"
         d="m 7098.7,-1106.66 c -429.27,-188.18 -558.05,-288.5 -608.95,-333.56 -78.44,-69.4 -121.83,-328.15 -168.09,-547.83 h 971.2 971.2 c -46.26,219.68 -89.66,478.43 -168.09,547.83 -50.88,45.06 -174.93,142.8 -604.23,331.01 l -393.04,2.55" />
      <path
         inkscape:connector-curvature="0"
         id="path354"
         style="fill:#f6be93;fill-opacity:1;fill-rule:evenodd;stroke:none"
         d="m 7084.44,-731.5 v -475.85 c 114.63,-135.53 302.21,-140.41 416.86,0 v 157.27 318.58 c 0,256.94 -416.86,256.94 -416.86,0" />
      <path
         inkscape:connector-curvature="0"
         id="path356"
         style="fill:#f6be93;fill-opacity:1;fill-rule:evenodd;stroke:none"
         d="m 6858.22,-432.36 c 36.7,12.1 83.42,-29.58 104.32,-93.06 20.91,-63.49 8.1,-124.76 -28.63,-136.85 -36.7,-12.08 -83.42,29.56 -104.31,93.08 -20.93,63.49 -8.1,124.74 28.62,136.83" />
      <path
         inkscape:connector-curvature="0"
         id="path358"
         style="fill:#f6be93;fill-opacity:1;fill-rule:evenodd;stroke:none"
         d="m 7725.69,-432.36 c -36.73,12.1 -83.44,-29.58 -104.35,-93.06 -20.91,-63.49 -8.07,-124.76 28.62,-136.85 36.74,-12.08 83.46,29.56 104.35,93.08 20.9,63.49 8.07,124.74 -28.62,136.83" />
      <path
         inkscape:connector-curvature="0"
         id="path360"
         style="fill:#9fbcc3;fill-opacity:1;fill-rule:evenodd;stroke:none"
         d="m 7293.97,-1310.83 c 0,0 -290.89,-69.43 -290.89,-87.03 0,-17.61 110.68,-590.19 110.68,-590.19 h 394.91 l 45.26,587.67 -259.96,89.55" />
      <path
         inkscape:connector-curvature="0"
         id="path362"
         style="fill:#1b1919;fill-opacity:1;fill-rule:evenodd;stroke:none"
         d="m 7084.44,-1112.91 v -94.44 l 90.55,-780.7 H 7019.3 l -171.28,347.72 163.5,109 -199.81,93.41 183.73,285.11 89,39.9" />
      <path
         inkscape:connector-curvature="0"
         id="path364"
         style="fill:#1c1a19;fill-opacity:1;fill-rule:evenodd;stroke:none"
         d="m 7501.3,-1113.4 v -93.95 l -91.43,-780.7 h 155.7 l 171.26,347.72 -163.47,109 199.77,93.41 -163.28,276.32 -108.55,48.2" />
      <path
         inkscape:connector-curvature="0"
         id="path366"
         style="fill:#51a9e3;fill-opacity:1;fill-rule:evenodd;stroke:none"
         d="m 7203.24,-1407.37 50.48,-78.21 c 26.08,0 52.19,0 78.29,0 l 50.5,78.21 -88.54,96.54 -90.73,-96.54" />
      <path
         inkscape:connector-curvature="0"
         id="path368"
         style="fill:#51a9e3;fill-opacity:1;fill-rule:evenodd;stroke:none"
         d="m 7253.72,-1485.58 -71.86,-502.47 h 222.04 l -71.89,502.47 h -78.29" />
      <path
         inkscape:connector-curvature="0"
         id="path370"
         style="fill:#ffffff;fill-opacity:1;fill-rule:evenodd;stroke:none"
         d="m 7084.44,-1050.08 -18.21,-70.89 50.99,-369.1 176.75,179.24 -209.53,260.75" />
      <path
         inkscape:connector-curvature="0"
         id="path372"
         style="fill:#c19774;fill-opacity:1;fill-rule:nonzero;stroke:none"
         d="m 7297.87,-1108.03 c -1.79,0 -3.59,0.04 -5.38,0.12 -101.56,4.56 -208.05,130.95 -208.05,130.95 v 15.03 l 416.86,-0.51 v -23.11 c 0,0 -103.49,-122.48 -203.43,-122.48" />
      <path
         inkscape:connector-curvature="0"
         id="path374"
         style="fill:#f6be93;fill-opacity:1;fill-rule:evenodd;stroke:none"
         d="m 7293.22,122.8 c -641.25,0 -395.47,-878.37 -353.59,-945.66 46.19,-74.21 250,-237.79 353.59,-237.79 103.62,0 307.4,163.58 353.61,237.79 41.89,67.29 287.65,945.66 -353.61,945.66" />
      <path
         inkscape:connector-curvature="0"
         id="path376"
         style="fill:#594c3c;fill-opacity:1;fill-rule:nonzero;stroke:none"
         d="m 7252.62,-65.21 c -3.61,1.13 -7.2,2.18 -10.8,3.23 5.35,-1.31 10.71,-2.69 16.08,-4.2 -1.76,0.35 -3.52,0.66 -5.28,0.97 z m 328.25,167.49 c -216.57,170.42 -550.98,68.82 -651.95,-73.2 -126.38,-177.72 -81.68,-447.56 -51.76,-650.31 l -0.02,0.88 c 0.35,-2.04 0.76,-4.12 1.31,-6.3 0.43,-1.65 4.03,-6.32 4.73,-7.6 1.06,-1.91 8.9,0.17 11.51,1.43 0.95,0.44 1.37,1.68 1.41,2.71 1.21,17.89 0.13,53.36 0.09,53.76 -2.38,27.89 -8.45,54.77 -12.53,82.03 20.27,127.82 80.26,154.69 111.71,308.86 6.64,10.31 13.77,20.29 21.23,30.02 8.59,11.19 17.48,21.95 27.86,31.52 5.46,3.32 10.72,6.93 15.78,10.86 116.56,42.7 236.73,-8.52 346.76,-53.42 42.06,-17.17 89.26,-37.47 135.66,-33.86 19.81,1.54 35.04,14.61 36.5,31.34 52.67,-157.74 96.07,-230.89 121.67,-346.57 -3.51,-20.09 -7.29,-40.15 -9.03,-60.78 -0.05,-0.4 -1.13,-35.87 0.07,-53.76 0.05,-1.03 0.47,-2.27 1.42,-2.71 2.6,-1.26 10.45,-3.34 11.5,-1.43 0.71,1.28 4.31,5.95 4.74,7.6 1.97,7.72 2.37,14.23 2.76,21.98 1.33,10.11 3.11,20.95 4.45,31.86 33.42,125.17 94.83,621.34 -135.87,675.09" />
      <path
         inkscape:connector-curvature="0"
         id="path378"
         style="fill:#ffffff;fill-opacity:1;fill-rule:evenodd;stroke:none"
         d="m 7501.3,-1050.08 14.38,-69.72 -47.92,-373.96 -173.79,182.93 207.33,260.75" />
      <path
         inkscape:connector-curvature="0"
         id="path380"
         style="fill:#e8b38a;fill-opacity:1;fill-rule:nonzero;stroke:none"
         d="m 7293.97,-1310.83 v 0 0 l -209.53,260.75 v 6.21 l 209.53,-259.59 207.33,259.59 v -6.21 l -207.33,-260.75" />
    </g>
    <path
       inkscape:connector-curvature="0"
       id="path286"
       style="fill:#c1a492;fill-opacity:1;fill-rule:nonzero;stroke:none;stroke-width:0.03527778"
       d="m 117.10919,123.68332 c -2.36502,0 -6.4509,-4.08023 -6.4509,-4.08023 v -0.44414 h 13.02315 v 0.39864 c 0,0 -4.20794,4.12573 -6.57225,4.12573" />
  </g>
</svg>
