<?xml version="1.0" encoding="UTF-8" standalone="no"?>
<!-- Created with Inkscape (http://www.inkscape.org/) -->

<svg
   xmlns:dc="http://purl.org/dc/elements/1.1/"
   xmlns:cc="http://creativecommons.org/ns#"
   xmlns:rdf="http://www.w3.org/1999/02/22-rdf-syntax-ns#"
   xmlns:svg="http://www.w3.org/2000/svg"
   xmlns="http://www.w3.org/2000/svg"
   xmlns:sodipodi="http://sodipodi.sourceforge.net/DTD/sodipodi-0.dtd"
   xmlns:inkscape="http://www.inkscape.org/namespaces/inkscape"
   width="856mm"
   height="2066mm"
   viewBox="0 0 856 2066"
   version="1.1"
   id="svg8"
   inkscape:version="0.92.2 5c3e80d, 2017-08-06"
   sodipodi:docname="rollup.svg"
   inkscape:export-filename="/home/lasse/bitmap.png"
   inkscape:export-xdpi="100"
   inkscape:export-ydpi="100">
  <defs
     id="defs2">
    <clipPath
       clipPathUnits="userSpaceOnUse"
       id="clipPath364">
      <path
         d="m 95.68,694.148 0.138,-2.421 c 0.013,-0.24 0.146,-0.458 0.353,-0.58 v 0 l 3.359,-1.985 c 0.439,-0.26 1.002,0.007 1.08,0.512 v 0 l 0.551,3.546 c 0.031,0.201 -0.024,0.406 -0.152,0.565 v 0 l -1.789,2.21 z"
         id="path362"
         inkscape:connector-curvature="0" />
    </clipPath>
    <clipPath
       clipPathUnits="userSpaceOnUse"
       id="clipPath344">
      <path
         d="m 91.682,692.159 0.138,-2.422 c 0.013,-0.24 0.146,-0.458 0.353,-0.58 v 0 l 3.358,-1.985 c 0.44,-0.26 1.003,0.007 1.081,0.511 v 0 l 0.551,3.547 c 0.031,0.2 -0.024,0.406 -0.152,0.564 v 0 l -1.789,2.21 z"
         id="path342"
         inkscape:connector-curvature="0" />
    </clipPath>
    <clipPath
       clipPathUnits="userSpaceOnUse"
       id="clipPath328">
      <path
         d="M 0,841.89 H 595.28 V 0 H 0 Z"
         id="path326"
         inkscape:connector-curvature="0" />
    </clipPath>
    <clipPath
       clipPathUnits="userSpaceOnUse"
       id="clipPath308">
      <path
         d="m 95.396,689.705 0.138,-2.421 c 0.014,-0.24 0.147,-0.458 0.354,-0.58 v 0 l 3.358,-1.985 c 0.44,-0.26 1.002,0.006 1.081,0.51 v 0 l 0.55,3.547 c 0.032,0.202 -0.024,0.407 -0.152,0.565 v 0 l -1.789,2.211 z"
         id="path306"
         inkscape:connector-curvature="0" />
    </clipPath>
    <clipPath
       clipPathUnits="userSpaceOnUse"
       id="clipPath288">
      <path
         d="M 0,841.89 H 595.28 V 0 H 0 Z"
         id="path286"
         inkscape:connector-curvature="0" />
    </clipPath>
    <clipPath
       clipPathUnits="userSpaceOnUse"
       id="clipPath268">
      <path
         d="m 150.073,698.198 -2.334,-1.509 c -0.14,-0.07 -0.243,-0.196 -0.285,-0.347 v 0 l -0.097,-3.119 c -0.03,-0.225 0.084,-0.444 0.284,-0.551 v 0 l 0.597,-0.315 c 0.17,-0.091 0.375,-0.083 0.538,0.017 v 0 l 2.284,1.655 c 0.144,0.116 0.219,0.296 0.203,0.48 v 0 l -0.388,3.245 c -0.027,0.299 -0.279,0.504 -0.552,0.504 v 0 c -0.083,0 -0.168,-0.018 -0.25,-0.06"
         id="path266"
         inkscape:connector-curvature="0" />
    </clipPath>
    <clipPath
       clipPathUnits="userSpaceOnUse"
       id="clipPath248">
      <path
         d="m 147.2,717.013 -1.017,-2.587 c -0.072,-0.139 -0.082,-0.301 -0.027,-0.448 v 0 l 1.738,-2.59 c 0.107,-0.201 0.328,-0.313 0.553,-0.283 v 0 l 0.669,0.092 c 0.19,0.026 0.352,0.151 0.427,0.329 v 0 l 0.89,2.674 c 0.049,0.179 0.006,0.369 -0.115,0.509 v 0 l -2.207,2.41 c -0.112,0.13 -0.265,0.192 -0.418,0.192 v 0 c -0.196,0 -0.391,-0.103 -0.493,-0.298"
         id="path246"
         inkscape:connector-curvature="0" />
    </clipPath>
    <clipPath
       clipPathUnits="userSpaceOnUse"
       id="clipPath236">
      <path
         d="M 0,841.89 H 595.28 V 0 H 0 Z"
         id="path234"
         inkscape:connector-curvature="0" />
    </clipPath>
    <clipPath
       clipPathUnits="userSpaceOnUse"
       id="clipPath216">
      <path
         d="m 134.034,681.039 -2.737,-3.008 c -0.219,-0.198 -0.293,-0.512 -0.184,-0.787 v 0 l 0.324,-0.818 c 0.093,-0.233 0.301,-0.4 0.549,-0.439 v 0 l 3.664,-0.293 c 0.24,-0.006 0.469,0.108 0.607,0.304 v 0 l 2.363,3.544 c 0.296,0.417 0.078,1 -0.419,1.12 v 0 l -3.591,0.481 c -0.056,0.014 -0.114,0.021 -0.171,0.021 v 0 c -0.143,0 -0.284,-0.043 -0.405,-0.125"
         id="path214"
         inkscape:connector-curvature="0" />
    </clipPath>
    <clipPath
       clipPathUnits="userSpaceOnUse"
       id="clipPath196">
      <path
         d="m 123.801,674.175 -3.74,-1.598 c -0.283,-0.088 -0.48,-0.344 -0.495,-0.639 v 0 l -0.046,-0.879 c -0.013,-0.25 0.108,-0.489 0.317,-0.627 v 0 l 3.21,-1.791 c 0.216,-0.105 0.471,-0.097 0.68,0.024 v 0 l 3.622,2.241 c 0.442,0.255 0.486,0.876 0.085,1.192 v 0 l -3.066,1.932 c -0.128,0.101 -0.286,0.155 -0.447,0.155 v 0 c -0.04,0 -0.08,-0.003 -0.12,-0.01"
         id="path194"
         inkscape:connector-curvature="0" />
    </clipPath>
    <clipPath
       clipPathUnits="userSpaceOnUse"
       id="clipPath184">
      <path
         d="M 0,841.89 H 595.28 V 0 H 0 Z"
         id="path182"
         inkscape:connector-curvature="0" />
    </clipPath>
    <clipPath
       clipPathUnits="userSpaceOnUse"
       id="clipPath164">
      <path
         d="m 117.069,674.317 -3.871,-1.246 c -0.289,-0.062 -0.51,-0.298 -0.552,-0.59 v 0 l -0.127,-0.871 c -0.036,-0.249 0.062,-0.497 0.257,-0.654 v 0 l 3.032,-2.079 c 0.205,-0.125 0.459,-0.14 0.678,-0.039 v 0 l 3.814,1.897 c 0.464,0.213 0.566,0.828 0.195,1.179 v 0 l -2.875,2.207 c -0.134,0.128 -0.312,0.198 -0.496,0.198 v 0 c -0.018,0 -0.037,-10e-4 -0.055,-0.002"
         id="path162"
         inkscape:connector-curvature="0" />
    </clipPath>
    <clipPath
       clipPathUnits="userSpaceOnUse"
       id="clipPath144">
      <path
         d="m 125.706,679.868 -3.444,-1.22 c -0.259,-0.063 -0.451,-0.28 -0.48,-0.545 v 0 l -0.091,-0.785 c -0.026,-0.224 0.068,-0.444 0.247,-0.58 v 0 l 2.778,-1.787 c 0.187,-0.108 0.416,-0.115 0.61,-0.019 v 0 l 3.375,1.804 c 0.41,0.204 0.486,0.758 0.144,1.064 v 0 l -2.639,1.906 c -0.12,0.107 -0.274,0.166 -0.433,0.166 v 0 c -0.022,0 -0.045,-0.002 -0.067,-0.004"
         id="path142"
         inkscape:connector-curvature="0" />
    </clipPath>
    <clipPath
       clipPathUnits="userSpaceOnUse"
       id="clipPath120">
      <path
         d="M 0,841.89 H 595.28 V 0 H 0 Z"
         id="path118"
         inkscape:connector-curvature="0" />
    </clipPath>
    <clipPath
       clipPathUnits="userSpaceOnUse"
       id="clipPath100">
      <path
         d="m 99.435,688.02 0.522,-2.368 c 0.052,-0.235 0.217,-0.429 0.442,-0.516 v 0 l 3.632,-1.424 c 0.475,-0.186 0.988,0.166 0.985,0.677 v 0 l -0.022,3.589 c -0.002,0.203 -0.089,0.398 -0.24,0.534 v 0 l -2.119,1.896 z"
         id="path98"
         inkscape:connector-curvature="0" />
    </clipPath>
    <clipPath
       clipPathUnits="userSpaceOnUse"
       id="clipPath80">
      <path
         d="m 94.288,685.812 0.138,-2.421 c 0.014,-0.241 0.146,-0.458 0.353,-0.581 v 0 l 3.359,-1.984 c 0.439,-0.26 1.002,0.006 1.081,0.51 v 0 l 0.551,3.547 c 0.03,0.201 -0.025,0.407 -0.153,0.565 v 0 l -1.789,2.211 z"
         id="path78"
         inkscape:connector-curvature="0" />
    </clipPath>
    <clipPath
       clipPathUnits="userSpaceOnUse"
       id="clipPath60">
      <path
         d="M 0,841.89 H 595.28 V 0 H 0 Z"
         id="path58"
         inkscape:connector-curvature="0" />
    </clipPath>
    <clipPath
       clipPathUnits="userSpaceOnUse"
       id="clipPath40">
      <path
         d="m 105.004,676.248 -0.434,-0.766 c -0.123,-0.217 -0.121,-0.485 0.004,-0.702 v 0 l 2.072,-3.035 c 0.145,-0.192 0.377,-0.298 0.617,-0.284 v 0 l 4.243,0.386 c 0.509,0.031 0.827,0.566 0.609,1.028 v 0 l -1.88,3.099 c -0.087,0.184 -0.248,0.324 -0.442,0.382 v 0 l -4.06,0.243 c -0.038,0.006 -0.075,0.009 -0.113,0.009 v 0 c -0.252,0 -0.489,-0.135 -0.616,-0.36"
         id="path38"
         inkscape:connector-curvature="0" />
    </clipPath>
    <clipPath
       clipPathUnits="userSpaceOnUse"
       id="clipPath20">
      <path
         d="m 100.899,681.049 -0.49,-0.732 c -0.138,-0.208 -0.157,-0.474 -0.049,-0.7 v 0 l 1.839,-3.182 c 0.13,-0.202 0.353,-0.325 0.595,-0.329 v 0 l 4.258,0.067 c 0.512,-0.008 0.868,0.503 0.685,0.979 v 0 l -1.641,3.231 c -0.073,0.191 -0.224,0.341 -0.414,0.415 v 0 l -4.03,0.546 c -0.054,0.013 -0.11,0.019 -0.164,0.019 v 0 c -0.233,0 -0.456,-0.114 -0.589,-0.314"
         id="path18"
         inkscape:connector-curvature="0" />
    </clipPath>
    <clipPath
       clipPathUnits="userSpaceOnUse"
       id="clipPath364-3">
      <path
         d="m 95.68,694.148 0.138,-2.421 c 0.013,-0.24 0.146,-0.458 0.353,-0.58 v 0 l 3.359,-1.985 c 0.439,-0.26 1.002,0.007 1.08,0.512 v 0 l 0.551,3.546 c 0.031,0.201 -0.024,0.406 -0.152,0.565 v 0 l -1.789,2.21 z"
         id="path362-6"
         inkscape:connector-curvature="0" />
    </clipPath>
    <clipPath
       clipPathUnits="userSpaceOnUse"
       id="clipPath344-7">
      <path
         d="m 91.682,692.159 0.138,-2.422 c 0.013,-0.24 0.146,-0.458 0.353,-0.58 v 0 l 3.358,-1.985 c 0.44,-0.26 1.003,0.007 1.081,0.511 v 0 l 0.551,3.547 c 0.031,0.2 -0.024,0.406 -0.152,0.564 v 0 l -1.789,2.21 z"
         id="path342-5"
         inkscape:connector-curvature="0" />
    </clipPath>
    <clipPath
       clipPathUnits="userSpaceOnUse"
       id="clipPath328-3">
      <path
         d="M 0,841.89 H 595.28 V 0 H 0 Z"
         id="path326-5"
         inkscape:connector-curvature="0" />
    </clipPath>
    <clipPath
       clipPathUnits="userSpaceOnUse"
       id="clipPath308-6">
      <path
         d="m 95.396,689.705 0.138,-2.421 c 0.014,-0.24 0.147,-0.458 0.354,-0.58 v 0 l 3.358,-1.985 c 0.44,-0.26 1.002,0.006 1.081,0.51 v 0 l 0.55,3.547 c 0.032,0.202 -0.024,0.407 -0.152,0.565 v 0 l -1.789,2.211 z"
         id="path306-2"
         inkscape:connector-curvature="0" />
    </clipPath>
    <clipPath
       clipPathUnits="userSpaceOnUse"
       id="clipPath288-9">
      <path
         d="M 0,841.89 H 595.28 V 0 H 0 Z"
         id="path286-1"
         inkscape:connector-curvature="0" />
    </clipPath>
    <clipPath
       clipPathUnits="userSpaceOnUse"
       id="clipPath268-2">
      <path
         d="m 150.073,698.198 -2.334,-1.509 c -0.14,-0.07 -0.243,-0.196 -0.285,-0.347 v 0 l -0.097,-3.119 c -0.03,-0.225 0.084,-0.444 0.284,-0.551 v 0 l 0.597,-0.315 c 0.17,-0.091 0.375,-0.083 0.538,0.017 v 0 l 2.284,1.655 c 0.144,0.116 0.219,0.296 0.203,0.48 v 0 l -0.388,3.245 c -0.027,0.299 -0.279,0.504 -0.552,0.504 v 0 c -0.083,0 -0.168,-0.018 -0.25,-0.06"
         id="path266-7"
         inkscape:connector-curvature="0" />
    </clipPath>
    <clipPath
       clipPathUnits="userSpaceOnUse"
       id="clipPath248-0">
      <path
         d="m 147.2,717.013 -1.017,-2.587 c -0.072,-0.139 -0.082,-0.301 -0.027,-0.448 v 0 l 1.738,-2.59 c 0.107,-0.201 0.328,-0.313 0.553,-0.283 v 0 l 0.669,0.092 c 0.19,0.026 0.352,0.151 0.427,0.329 v 0 l 0.89,2.674 c 0.049,0.179 0.006,0.369 -0.115,0.509 v 0 l -2.207,2.41 c -0.112,0.13 -0.265,0.192 -0.418,0.192 v 0 c -0.196,0 -0.391,-0.103 -0.493,-0.298"
         id="path246-9"
         inkscape:connector-curvature="0" />
    </clipPath>
    <clipPath
       clipPathUnits="userSpaceOnUse"
       id="clipPath236-3">
      <path
         d="M 0,841.89 H 595.28 V 0 H 0 Z"
         id="path234-6"
         inkscape:connector-curvature="0" />
    </clipPath>
    <clipPath
       clipPathUnits="userSpaceOnUse"
       id="clipPath216-0">
      <path
         d="m 134.034,681.039 -2.737,-3.008 c -0.219,-0.198 -0.293,-0.512 -0.184,-0.787 v 0 l 0.324,-0.818 c 0.093,-0.233 0.301,-0.4 0.549,-0.439 v 0 l 3.664,-0.293 c 0.24,-0.006 0.469,0.108 0.607,0.304 v 0 l 2.363,3.544 c 0.296,0.417 0.078,1 -0.419,1.12 v 0 l -3.591,0.481 c -0.056,0.014 -0.114,0.021 -0.171,0.021 v 0 c -0.143,0 -0.284,-0.043 -0.405,-0.125"
         id="path214-6"
         inkscape:connector-curvature="0" />
    </clipPath>
    <clipPath
       clipPathUnits="userSpaceOnUse"
       id="clipPath196-2">
      <path
         d="m 123.801,674.175 -3.74,-1.598 c -0.283,-0.088 -0.48,-0.344 -0.495,-0.639 v 0 l -0.046,-0.879 c -0.013,-0.25 0.108,-0.489 0.317,-0.627 v 0 l 3.21,-1.791 c 0.216,-0.105 0.471,-0.097 0.68,0.024 v 0 l 3.622,2.241 c 0.442,0.255 0.486,0.876 0.085,1.192 v 0 l -3.066,1.932 c -0.128,0.101 -0.286,0.155 -0.447,0.155 v 0 c -0.04,0 -0.08,-0.003 -0.12,-0.01"
         id="path194-6"
         inkscape:connector-curvature="0" />
    </clipPath>
    <clipPath
       clipPathUnits="userSpaceOnUse"
       id="clipPath184-1">
      <path
         d="M 0,841.89 H 595.28 V 0 H 0 Z"
         id="path182-8"
         inkscape:connector-curvature="0" />
    </clipPath>
    <clipPath
       clipPathUnits="userSpaceOnUse"
       id="clipPath164-7">
      <path
         d="m 117.069,674.317 -3.871,-1.246 c -0.289,-0.062 -0.51,-0.298 -0.552,-0.59 v 0 l -0.127,-0.871 c -0.036,-0.249 0.062,-0.497 0.257,-0.654 v 0 l 3.032,-2.079 c 0.205,-0.125 0.459,-0.14 0.678,-0.039 v 0 l 3.814,1.897 c 0.464,0.213 0.566,0.828 0.195,1.179 v 0 l -2.875,2.207 c -0.134,0.128 -0.312,0.198 -0.496,0.198 v 0 c -0.018,0 -0.037,-10e-4 -0.055,-0.002"
         id="path162-9"
         inkscape:connector-curvature="0" />
    </clipPath>
    <clipPath
       clipPathUnits="userSpaceOnUse"
       id="clipPath144-2">
      <path
         d="m 125.706,679.868 -3.444,-1.22 c -0.259,-0.063 -0.451,-0.28 -0.48,-0.545 v 0 l -0.091,-0.785 c -0.026,-0.224 0.068,-0.444 0.247,-0.58 v 0 l 2.778,-1.787 c 0.187,-0.108 0.416,-0.115 0.61,-0.019 v 0 l 3.375,1.804 c 0.41,0.204 0.486,0.758 0.144,1.064 v 0 l -2.639,1.906 c -0.12,0.107 -0.274,0.166 -0.433,0.166 v 0 c -0.022,0 -0.045,-0.002 -0.067,-0.004"
         id="path142-0"
         inkscape:connector-curvature="0" />
    </clipPath>
    <clipPath
       clipPathUnits="userSpaceOnUse"
       id="clipPath120-2">
      <path
         d="M 0,841.89 H 595.28 V 0 H 0 Z"
         id="path118-3"
         inkscape:connector-curvature="0" />
    </clipPath>
    <clipPath
       clipPathUnits="userSpaceOnUse"
       id="clipPath100-7">
      <path
         d="m 99.435,688.02 0.522,-2.368 c 0.052,-0.235 0.217,-0.429 0.442,-0.516 v 0 l 3.632,-1.424 c 0.475,-0.186 0.988,0.166 0.985,0.677 v 0 l -0.022,3.589 c -0.002,0.203 -0.089,0.398 -0.24,0.534 v 0 l -2.119,1.896 z"
         id="path98-5"
         inkscape:connector-curvature="0" />
    </clipPath>
    <clipPath
       clipPathUnits="userSpaceOnUse"
       id="clipPath80-9">
      <path
         d="m 94.288,685.812 0.138,-2.421 c 0.014,-0.241 0.146,-0.458 0.353,-0.581 v 0 l 3.359,-1.984 c 0.439,-0.26 1.002,0.006 1.081,0.51 v 0 l 0.551,3.547 c 0.03,0.201 -0.025,0.407 -0.153,0.565 v 0 l -1.789,2.211 z"
         id="path78-2"
         inkscape:connector-curvature="0" />
    </clipPath>
    <clipPath
       clipPathUnits="userSpaceOnUse"
       id="clipPath60-2">
      <path
         d="M 0,841.89 H 595.28 V 0 H 0 Z"
         id="path58-8"
         inkscape:connector-curvature="0" />
    </clipPath>
    <clipPath
       clipPathUnits="userSpaceOnUse"
       id="clipPath40-9">
      <path
         d="m 105.004,676.248 -0.434,-0.766 c -0.123,-0.217 -0.121,-0.485 0.004,-0.702 v 0 l 2.072,-3.035 c 0.145,-0.192 0.377,-0.298 0.617,-0.284 v 0 l 4.243,0.386 c 0.509,0.031 0.827,0.566 0.609,1.028 v 0 l -1.88,3.099 c -0.087,0.184 -0.248,0.324 -0.442,0.382 v 0 l -4.06,0.243 c -0.038,0.006 -0.075,0.009 -0.113,0.009 v 0 c -0.252,0 -0.489,-0.135 -0.616,-0.36"
         id="path38-7"
         inkscape:connector-curvature="0" />
    </clipPath>
    <clipPath
       clipPathUnits="userSpaceOnUse"
       id="clipPath20-3">
      <path
         d="m 100.899,681.049 -0.49,-0.732 c -0.138,-0.208 -0.157,-0.474 -0.049,-0.7 v 0 l 1.839,-3.182 c 0.13,-0.202 0.353,-0.325 0.595,-0.329 v 0 l 4.258,0.067 c 0.512,-0.008 0.868,0.503 0.685,0.979 v 0 l -1.641,3.231 c -0.073,0.191 -0.224,0.341 -0.414,0.415 v 0 l -4.03,0.546 c -0.054,0.013 -0.11,0.019 -0.164,0.019 v 0 c -0.233,0 -0.456,-0.114 -0.589,-0.314"
         id="path18-6"
         inkscape:connector-curvature="0" />
    </clipPath>
  </defs>
  <sodipodi:namedview
     id="base"
     pagecolor="#ffffff"
     bordercolor="#666666"
     borderopacity="1.0"
     inkscape:pageopacity="0.0"
     inkscape:pageshadow="2"
     inkscape:zoom="0.08"
     inkscape:cx="1781.031"
     inkscape:cy="4119.1438"
     inkscape:document-units="mm"
     inkscape:current-layer="g2354"
     showgrid="false"
     inkscape:window-width="1371"
     inkscape:window-height="760"
     inkscape:window-x="2328"
     inkscape:window-y="196"
     inkscape:window-maximized="0"
     showguides="true"
     inkscape:guide-bbox="true" />
  <metadata
     id="metadata5">
    <rdf:RDF>
      <cc:Work
         rdf:about="">
        <dc:format>image/svg+xml</dc:format>
        <dc:type
           rdf:resource="http://purl.org/dc/dcmitype/StillImage" />
        <dc:title />
      </cc:Work>
    </rdf:RDF>
  </metadata>
  <g
     inkscape:label="Layer 1"
     inkscape:groupmode="layer"
     id="layer1"
     transform="translate(0,1769)">
    <g
       id="g2354"
       transform="matrix(4.2132747,0,0,4.2132747,-2407.0856,2931.3965)">
      <flowRoot
         xml:space="preserve"
         id="flowRoot2633"
         style="fill:black;fill-opacity:1;stroke:none;font-family:sans-serif;font-style:normal;font-weight:normal;font-size:40px;line-height:1.25;letter-spacing:0px;word-spacing:0px"><flowRegion
           id="flowRegion2635"><rect
             id="rect2637"
             width="121.21831"
             height="476.79199"
             x="1656.6501"
             y="7549.9048" /></flowRegion><flowPara
           id="flowPara2639" /></flowRoot>      <rect
         style="opacity:1;fill:#173542;fill-opacity:1;stroke:none;stroke-width:0;stroke-miterlimit:4;stroke-dasharray:none;stroke-opacity:1"
         id="rect4843"
         width="205.66197"
         height="368.54315"
         x="570.5249"
         y="-990.27173" />
      <g
         transform="matrix(0.50762097,0,0,-0.50762097,690.42025,-993.12284)"
         id="g68">
        <path
           inkscape:connector-curvature="0"
           id="path70"
           style="fill:#173542;fill-opacity:1;fill-rule:nonzero;stroke:none"
           d="m 0,0 c -3.666,0 -6.641,2.974 -6.641,6.64 0,3.664 2.975,6.64 6.641,6.64 3.664,0 6.641,-2.976 6.641,-6.64 C 6.641,2.974 3.664,0 0,0 m -18.561,19.278 c -1.535,0 -2.955,-0.824 -3.718,-2.161 -0.762,-1.337 -0.744,-2.979 0.041,-4.303 l 9.726,-16.395 c 1.703,-2.873 4.791,-4.631 8.125,-4.631 h 28.291 v 2.178 c 0,9.257 -2.554,17.919 -7.004,25.312 z" />
      </g>
      <g
         transform="matrix(0.50762097,0,0,-0.50762097,658.73013,-991.72056)"
         id="g72">
        <path
           inkscape:connector-curvature="0"
           id="path74"
           style="fill:#173542;fill-opacity:1;fill-rule:nonzero;stroke:none"
           d="m 0,0 c -6.151,0 -11.137,-4.986 -11.137,-11.137 0,-6.152 4.986,-11.138 11.137,-11.138 6.15,0 11.138,4.986 11.138,11.138 C 11.138,-4.986 6.15,0 0,0" />
      </g>
      <g
         transform="matrix(0.50762097,0,0,-0.50762097,709.86358,-955.82234)"
         id="g76">
        <path
           inkscape:connector-curvature="0"
           id="path78-1"
           style="fill:#173542;fill-opacity:1;fill-rule:nonzero;stroke:none"
           d="m 0,0 h -14.398 v 28.133 h -12.483 c 0,2.049 1.66,3.706 3.707,3.706 h 8.776 v 2.474 h -12.483 c 0,2.044 1.66,3.705 3.707,3.705 h 8.776 v 2.471 h -12.483 c 0,2.047 1.66,3.708 3.707,3.708 h 8.776 v 17.122 h -30.54 c -3.333,0 -6.423,1.764 -8.123,4.632 l -12.316,20.753 c -1.211,2.047 -1.234,4.588 -0.057,6.656 1.178,2.069 3.373,3.347 5.756,3.347 h 35.639 c -8.965,12.102 -23.352,19.946 -39.566,19.946 h -18.45 c -0.318,0 -0.635,-0.005 -0.955,-0.013 v 14.563 c 3.152,1.611 5.312,4.892 5.312,8.675 0,5.379 -4.361,9.74 -9.739,9.74 -5.379,0 -9.738,-4.361 -9.738,-9.74 0,-4.129 2.572,-7.657 6.197,-9.073 v -14.962 c -22.917,-4.197 -40.281,-24.266 -40.281,-48.396 V 0 h -14.4 c -16.344,17.676 -26.325,41.313 -26.325,67.284 0,54.76 44.393,99.154 99.155,99.154 54.761,0 99.153,-44.394 99.153,-99.154 C 26.324,41.313 16.344,17.676 0,0 m -100.731,43.666 c -8.775,0 -15.915,7.141 -15.915,15.916 0,8.774 7.14,15.913 15.915,15.913 8.775,0 15.914,-7.139 15.914,-15.913 0,-8.775 -7.139,-15.916 -15.914,-15.916 m 27.906,132.621 c -60.44,0 -109.429,-48.989 -109.429,-109.43 0,-60.429 48.989,-109.419 109.429,-109.419 60.43,0 109.419,48.99 109.419,109.419 0,60.441 -48.989,109.43 -109.419,109.43" />
      </g>
      <text
         id="text864"
         y="-897.80908"
         x="593.7243"
         style="font-style:normal;font-weight:normal;font-size:15.22862911px;line-height:1.25;font-family:sans-serif;letter-spacing:0px;word-spacing:0px;fill:#ffffff;fill-opacity:1;stroke:none;stroke-width:0.3807157"
         xml:space="preserve"><tspan
           style="font-size:30.81313896px;fill:#ffffff;fill-opacity:1;stroke-width:0.3807157"
           y="-897.80908"
           x="593.7243"
           id="tspan862"
           sodipodi:role="line">GitMate.io</tspan></text>
      <path
         inkscape:connector-curvature="0"
         id="path161"
         d="m 633.71444,-958.74208 c -5.03122,-6.23355 -8.83332,-14.65509 -10.28749,-22.78666 -0.66306,-3.70788 -0.66422,-13.20371 -0.002,-16.92129 2.70228,-15.17347 12.53434,-28.64577 26.21257,-35.91847 3.98221,-2.117 10.17715,-4.2268 14.74476,-5.0222 4.40411,-0.7663 12.60903,-0.7663 17.01308,0 15.48718,2.6954 29.021,12.7478 36.30987,26.9688 1.8052,3.5224 3.92068,9.8754 4.65225,13.97187 0.73139,4.09528 0.64306,13.62809 -0.16429,17.707 -1.59913,8.08185 -5.18976,15.88016 -10.13029,22.00095 l -2.09541,2.5954 h -3.63695 -3.63694 v -7.11445 -7.11506 h -3.07665 c -1.71989,0 -3.07664,-0.16369 -3.07664,-0.36981 0,-0.70872 1.5008,-1.16705 3.82052,-1.16705 2.07638,0 2.33277,-0.0849 2.33277,-0.76934 0,-0.70508 -0.25645,-0.76874 -3.07665,-0.76874 -1.69212,0 -3.07664,-0.13944 -3.07664,-0.30919 0,-0.83846 1.12692,-1.23071 3.53819,-1.23071 2.35871,0 2.6151,-0.0728 2.6151,-0.76855 0,-0.70508 -0.25645,-0.76934 -3.07665,-0.76934 -1.69212,0 -3.07664,-0.13944 -3.07664,-0.3092 0,-0.83967 1.12722,-1.2307 3.55037,-1.2307 h 2.62735 l -0.10852,-4.51845 -0.10852,-4.51905 -8.71922,-0.19401 c -8.55322,-0.18794 -8.73788,-0.21219 -9.70238,-1.11672 -0.54078,-0.50926 -2.45796,-3.429 -4.26043,-6.49001 -3.59068,-6.09774 -3.94207,-7.40244 -2.38714,-8.86354 0.86525,-0.8123 1.16056,-0.836 10.576,-0.836 6.94512,0 9.6859,-0.1212 9.6859,-0.4365 0,-1.0221 -5.29088,-5.5848 -8.26852,-7.1302 -4.58132,-2.3778 -6.70001,-2.8282 -14.5179,-3.0871 l -6.82629,-0.2243 v -3.5569 c 0,-2.75 0.1261,-3.606 0.55654,-3.7709 0.88096,-0.3395 1.84151,-2.5548 1.81884,-4.1972 -0.0546,-3.7891 -4.38119,-6.1377 -7.64493,-4.148 -2.87281,1.7521 -3.23281,5.694 -0.72957,7.9875 l 1.38391,1.2683 v 3.5757 3.5757 l -1.97713,0.5092 c -2.99886,0.7688 -7.57199,3.2399 -10.02528,5.4176 -2.94151,2.6111 -5.80426,6.9853 -7.11251,10.86777 l -1.06447,3.15921 -0.12125,19.32511 -0.12125,19.32493 h -3.61724 -3.61725 z m 68.86258,-33.26645 c -0.2322,-3.18711 -1.25169,-6.92348 -2.62304,-9.61167 l -0.73709,-1.4447 h -9.48032 c -10.39903,0 -10.88683,0.1031 -10.88683,2.299 0,1.47317 5.51259,10.61252 6.83333,11.32972 0.83003,0.44864 2.7375,0.56989 9.08776,0.58201 h 8.03717 z"
         style="fill:#ffffff;stroke:none;stroke-width:0.38458097" />
      <path
         inkscape:connector-curvature="0"
         id="path163"
         d="m 634.0688,-958.21281 c -8.23409,-10.22395 -12.06898,-22.27923 -11.21016,-35.24044 1.18142,-17.83005 11.9812,-33.82625 28.12945,-41.66455 7.54173,-3.6606 15.29057,-5.2611 23.9089,-4.938 12.24753,0.4608 23.56474,5.2138 32.49427,13.653 12.52979,11.842 18.10489,29.50055 14.68189,46.50308 -1.53978,7.64777 -5.49731,15.86258 -10.6339,22.07249 l -1.64939,1.99398 h -3.49411 -3.49411 l -0.0728,-7.1387 -0.0728,-7.13809 -3.22105,-0.13944 -3.22105,-0.13337 0.58928,-0.74813 c 0.56746,-0.71963 0.68307,-0.74751 3.12393,-0.74751 2.06601,0 2.56526,-0.0788 2.70052,-0.43045 0.0915,-0.23644 0.097,-0.54563 0.0121,-0.68022 -0.0843,-0.13338 -1.553,-0.24857 -3.26416,-0.24857 -1.71123,0 -3.11126,-0.10912 -3.11126,-0.2425 0,-0.13338 0.21401,-0.5032 0.47591,-0.82694 0.40619,-0.49713 0.8755,-0.61353 3.19529,-0.77783 2.4739,-0.17581 2.71943,-0.2425 2.71943,-0.73642 0,-0.5032 -0.22674,-0.5517 -3.22105,-0.67962 l -3.22099,-0.13944 0.58928,-0.74751 c 0.56806,-0.72085 0.68192,-0.74813 3.13697,-0.74813 1.40124,0 2.62116,-0.12125 2.711,-0.26675 0.0897,-0.1455 0.0788,-2.16435 -0.0243,-4.48692 l -0.18854,-4.2226 h -8.16722 c -7.63965,0 -8.23863,-0.0606 -9.27285,-0.54563 -1.35105,-0.66931 -1.22949,-0.50319 -5.28203,-7.31815 -3.49902,-5.88613 -3.73443,-6.55303 -2.88943,-8.18693 0.81918,-1.5841 1.09054,-1.6229 11.40336,-1.6229 5.70375,0 9.39544,-0.1031 9.39544,-0.2547 0,-0.4668 -3.09525,-3.6108 -4.89487,-4.9737 -2.2856,-1.7315 -6.08787,-3.5951 -8.8381,-4.3323 -1.8725,-0.5032 -3.13182,-0.6002 -9.04199,-0.7045 l -6.86649,-0.1213 v -3.6375 c 0,-3.5606 0.0121,-3.6473 0.66652,-4.0747 1.80732,-1.184 2.31045,-4.7628 0.94892,-6.7501 -1.86019,-2.7148 -5.86519,-2.9343 -7.96643,-0.4365 -0.8801,1.0458 -1.3622,2.7724 -1.13115,4.0517 0.2328,1.2895 1.27672,2.8536 2.31221,3.4653 l 0.83348,0.4911 -0.0752,3.6485 -0.0752,3.649 -1.87425,0.5154 c -7.10287,1.9442 -12.86839,6.8222 -16.05501,13.5832 -2.28984,4.85793 -2.15792,3.37987 -2.25995,25.3222 l -0.0909,19.51165 h -3.61603 -3.61609 z m 68.56836,-30.76564 c 0.26978,-0.43651 -0.37285,-5.7831 -0.95425,-7.93835 -0.31405,-1.16402 -1.01888,-3.0119 -1.56627,-4.1068 l -0.99524,-1.991 -6.52656,-0.085 c -8.80888,-0.1151 -12.41866,0.1031 -13.16497,0.8003 -0.99996,0.9318 -0.7403,2.0067 1.37469,5.69035 3.7599,6.5488 4.46486,7.33027 6.87934,7.62613 2.18096,0.26675 14.78878,0.27281 14.95326,0.004 z"
         style="fill:#ffffff;stroke:none;stroke-width:0.27193978" />
      <path
         inkscape:connector-curvature="0"
         id="path165"
         d="m 688.21662,-994.28564 c -0.78916,-0.78935 -0.9246,-1.11188 -0.9246,-2.20254 0,-1.09126 0.13519,-1.41379 0.9246,-2.20254 1.33214,-1.33258 3.07331,-1.33258 4.40544,0 0.78917,0.78875 0.92461,1.11128 0.92461,2.20254 0,1.09066 -0.1352,1.41319 -0.92461,2.20254 -0.78922,0.78935 -1.11175,0.92454 -2.20272,0.92454 -1.09096,0 -1.41349,-0.13337 -2.20272,-0.92454 z"
         style="fill:#ffffff;stroke:none;stroke-width:0.27193978" />
      <path
         inkscape:connector-curvature="0"
         id="path167"
         d="m 655.83646,-978.70115 c -1.63714,-0.6299 -3.34273,-2.18132 -4.21932,-3.83883 -0.91963,-1.73936 -0.89569,-5.26778 0.0485,-7.11627 1.35772,-2.65844 4.0101,-4.24866 7.08729,-4.24866 3.17898,0 5.63451,1.55809 7.07855,4.49117 0.79148,1.60779 0.85434,1.92608 0.73637,3.73213 -0.15278,2.33712 -0.75825,3.66726 -2.41704,5.30658 -2.1507,2.12554 -5.42444,2.78455 -8.31405,1.67388 z m 5.2157,-2.11402 c 4.2871,-1.94731 4.54525,-8.10932 0.43105,-10.28155 -1.63562,-0.86331 -3.85362,-0.86331 -5.48925,0 -3.21311,1.69631 -3.95656,6.03106 -1.51194,8.81561 1.64514,1.87334 4.34663,2.47657 6.57039,1.46594 z"
         style="fill:#ffffff;stroke:none;stroke-width:0.27193978" />
      <text
         id="text864-0"
         y="-863.33673"
         x="673.15936"
         style="font-style:normal;font-weight:normal;font-size:15.22862911px;line-height:1.25;font-family:sans-serif;letter-spacing:0px;word-spacing:0px;opacity:0.87000002;fill:#ffffff;fill-opacity:1;stroke:none;stroke-width:0.3807157"
         xml:space="preserve"><tspan
           style="font-size:16.74601364px;text-align:center;text-anchor:middle;fill:#ffffff;fill-opacity:1;stroke-width:0.3807157"
           y="-863.33673"
           x="673.15936"
           sodipodi:role="line"
           id="tspan4847">ML based</tspan><tspan
           style="font-size:16.74601364px;text-align:center;text-anchor:middle;fill:#ffffff;fill-opacity:1;stroke-width:0.3807157"
           y="-842.40424"
           x="673.15936"
           sodipodi:role="line"
           id="tspan4851">ticket manager</tspan><tspan
           style="font-size:16.74601364px;text-align:center;text-anchor:middle;fill:#ffffff;fill-opacity:1;stroke-width:0.3807157"
           y="-821.47168"
           x="673.15936"
           sodipodi:role="line"
           id="tspan4828">for Jira and GitHub</tspan></text>
    </g>
  </g>
</svg>
