<?xml version="1.0" encoding="UTF-8" standalone="no"?>
<!-- Created with Inkscape (http://www.inkscape.org/) -->

<svg
   xmlns:dc="http://purl.org/dc/elements/1.1/"
   xmlns:cc="http://creativecommons.org/ns#"
   xmlns:rdf="http://www.w3.org/1999/02/22-rdf-syntax-ns#"
   xmlns:svg="http://www.w3.org/2000/svg"
   xmlns="http://www.w3.org/2000/svg"
   xmlns:sodipodi="http://sodipodi.sourceforge.net/DTD/sodipodi-0.dtd"
   xmlns:inkscape="http://www.inkscape.org/namespaces/inkscape"
   width="900"
   height="500"
   viewBox="0 0 238.125 132.29167"
   version="1.1"
   id="svg8"
   inkscape:version="0.92.2 2405546, 2018-03-11"
   sodipodi:docname="logo.svg"
   inkscape:export-filename="/home/sils/code/gitmate/artwork/sprynt/Sprynt.io_SUA_logo.png"
   inkscape:export-xdpi="95.999992"
   inkscape:export-ydpi="95.999992">
  <defs
     id="defs2">
    <filter
       inkscape:collect="always"
       style="color-interpolation-filters:sRGB"
       id="filter985"
       x="-0.20001087"
       width="1.4000217"
       y="-0.15210639"
       height="1.3042128">
      <feGaussianBlur
         inkscape:collect="always"
         stdDeviation="0.50731786"
         id="feGaussianBlur987" />
    </filter>
    <filter
       inkscape:collect="always"
       style="color-interpolation-filters:sRGB"
       id="filter985-6"
       x="-0.20001087"
       width="1.4000217"
       y="-0.15210639"
       height="1.3042128">
      <feGaussianBlur
         inkscape:collect="always"
         stdDeviation="0.50731786"
         id="feGaussianBlur987-0" />
    </filter>
  </defs>
  <sodipodi:namedview
     id="base"
     pagecolor="#ffffff"
     bordercolor="#666666"
     borderopacity="1.0"
     inkscape:pageopacity="0.0"
     inkscape:pageshadow="2"
     inkscape:zoom="0.35"
     inkscape:cx="187.65583"
     inkscape:cy="-558.2633"
     inkscape:document-units="mm"
     inkscape:current-layer="layer1"
     showgrid="false"
     fit-margin-top="0"
     fit-margin-left="0"
     fit-margin-right="0"
     fit-margin-bottom="0"
     showguides="true"
     inkscape:guide-bbox="true"
     inkscape:window-width="1920"
     inkscape:window-height="1043"
     inkscape:window-x="1920"
     inkscape:window-y="0"
     inkscape:window-maximized="1"
     units="px" />
  <metadata
     id="metadata5">
    <rdf:RDF>
      <cc:Work
         rdf:about="">
        <dc:format>image/svg+xml</dc:format>
        <dc:type
           rdf:resource="http://purl.org/dc/dcmitype/StillImage" />
        <dc:title></dc:title>
      </cc:Work>
    </rdf:RDF>
  </metadata>
  <g
     inkscape:label="Layer 1"
     inkscape:groupmode="layer"
     id="layer1"
     transform="translate(-30.402493,94.107203)">
    <flowRoot
       xml:space="preserve"
       id="flowRoot1010"
       style="font-style:normal;font-weight:normal;font-size:40px;line-height:1.25;font-family:sans-serif;letter-spacing:0px;word-spacing:0px;fill:#000000;fill-opacity:1;stroke:none"
       transform="matrix(0.26458333,0,0,0.26458333,30.402493,27.184464)"><flowRegion
         id="flowRegion1012"><rect
           id="rect1014"
           width="49.244938"
           height="53.664352"
           x="-12.121831"
           y="-4.7659459" /></flowRegion><flowPara
         id="flowPara1016"></flowPara></flowRoot>    <text
       xml:space="preserve"
       style="font-style:normal;font-weight:normal;font-size:10.58333302px;line-height:1.25;font-family:sans-serif;letter-spacing:0px;word-spacing:0px;fill:#000000;fill-opacity:1;stroke:none;stroke-width:0.26458332;filter:url(#filter985-6)"
       x="32.008118"
       y="36.520115"
       id="text817-8"
       transform="matrix(12.004826,0,0,12.004826,-281.30536,-418.56905)"><tspan
         sodipodi:role="line"
         id="tspan815-3"
         x="32.008118"
         y="36.520115"
         style="font-style:normal;font-variant:normal;font-weight:bold;font-stretch:normal;font-size:12.69999981px;font-family:Karla;-inkscape-font-specification:'Karla Bold';fill:#000000;fill-opacity:1;stroke-width:0.26458332">S</tspan></text>
    <text
       xml:space="preserve"
       style="font-style:normal;font-weight:normal;font-size:127.05107117px;line-height:1.25;font-family:sans-serif;letter-spacing:0px;word-spacing:0px;fill:#130051;fill-opacity:1;stroke:none;stroke-width:3.17627668"
       x="100.31211"
       y="25.076603"
       id="text817-3-7"><tspan
         sodipodi:role="line"
         id="tspan815-6-8"
         x="100.31211"
         y="25.076603"
         style="font-style:normal;font-variant:normal;font-weight:bold;font-stretch:normal;font-size:152.46128845px;font-family:Karla;-inkscape-font-specification:'Karla Bold';fill:#130051;fill-opacity:1;stroke-width:3.17627668">S</tspan></text>
  </g>
</svg>
