<?xml version="1.0" encoding="UTF-8" standalone="no"?>
<!-- Created with Inkscape (http://www.inkscape.org/) -->

<svg
   xmlns:dc="http://purl.org/dc/elements/1.1/"
   xmlns:cc="http://creativecommons.org/ns#"
   xmlns:rdf="http://www.w3.org/1999/02/22-rdf-syntax-ns#"
   xmlns:svg="http://www.w3.org/2000/svg"
   xmlns="http://www.w3.org/2000/svg"
   xmlns:sodipodi="http://sodipodi.sourceforge.net/DTD/sodipodi-0.dtd"
   xmlns:inkscape="http://www.inkscape.org/namespaces/inkscape"
   width="410"
   height="410"
   viewBox="0 0 108.47916 108.47916"
   version="1.1"
   id="svg8"
   inkscape:version="0.92.2 2405546, 2018-03-11"
   sodipodi:docname="logo_simplified.svg"
   inkscape:export-filename="/home/sils/code/gitmate/artwork/sprynt/Sfavicon.png"
   inkscape:export-xdpi="95.999992"
   inkscape:export-ydpi="95.999992">
  <defs
     id="defs2" />
  <sodipodi:namedview
     id="base"
     pagecolor="#ffffff"
     bordercolor="#666666"
     borderopacity="1.0"
     inkscape:pageopacity="0.0"
     inkscape:pageshadow="2"
     inkscape:zoom="0.49497475"
     inkscape:cx="-278.92238"
     inkscape:cy="-146.99794"
     inkscape:document-units="mm"
     inkscape:current-layer="layer1"
     showgrid="false"
     fit-margin-top="0"
     fit-margin-left="0"
     fit-margin-right="0"
     fit-margin-bottom="0"
     showguides="true"
     inkscape:guide-bbox="true"
     inkscape:window-width="1920"
     inkscape:window-height="1016"
     inkscape:window-x="0"
     inkscape:window-y="27"
     inkscape:window-maximized="1"
     units="px" />
  <metadata
     id="metadata5">
    <rdf:RDF>
      <cc:Work
         rdf:about="">
        <dc:format>image/svg+xml</dc:format>
        <dc:type
           rdf:resource="http://purl.org/dc/dcmitype/StillImage" />
        <dc:title></dc:title>
      </cc:Work>
    </rdf:RDF>
  </metadata>
  <g
     inkscape:label="Layer 1"
     inkscape:groupmode="layer"
     id="layer1"
     transform="translate(-110.22209,81.268101)">
    <flowRoot
       xml:space="preserve"
       id="flowRoot1010"
       style="font-style:normal;font-weight:normal;font-size:40px;line-height:1.25;font-family:sans-serif;letter-spacing:0px;word-spacing:0px;fill:#000000;fill-opacity:1;stroke:none"
       transform="matrix(0.26458333,0,0,0.26458333,30.402493,27.184464)"><flowRegion
         id="flowRegion1012"><rect
           id="rect1014"
           width="49.244938"
           height="53.664352"
           x="-12.121831"
           y="-4.7659459" /></flowRegion><flowPara
         id="flowPara1016" /></flowRoot>    <text
       xml:space="preserve"
       style="font-style:normal;font-weight:normal;font-size:127.05107117px;line-height:1.25;font-family:sans-serif;letter-spacing:0px;word-spacing:0px;fill:#130051;fill-opacity:1;stroke:none;stroke-width:3.17627668"
       x="115.82652"
       y="22.36894"
       id="text817-3-7"><tspan
         sodipodi:role="line"
         id="tspan815-6-8"
         x="115.82652"
         y="22.36894"
         style="font-style:normal;font-variant:normal;font-weight:bold;font-stretch:normal;font-size:152.46128845px;font-family:Karla;-inkscape-font-specification:'Karla Bold';fill:#130051;fill-opacity:1;stroke-width:3.17627668">S</tspan></text>
  </g>
</svg>
